Access to the Gitlab API • gitlabr
…
# connect as a fixed user to a gitlab instance
my_gitlab <- gl_connection(
  gitlab_url = "https://gitlab.com",
  private_token = Sys.getenv("GITLAB_COM_TOKEN"))
# a function is returned
# its first argument is the request (name or function), optionally followed by parameters

Find the list of projects available to you

Define a limit of pages of projects to search in with max_page, otherwise the entire Gitlab.com will be downloaded here…

# a data_frame is returned, as is always by gitlabr functions
my_gitlab(gl_list_projects, max_page = 2) 
#> # A tibble: 60 x 116
#>    id    description name  name_with_names… path  path_with_names… created_at
#>    <chr> <chr>       <chr> <chr>            <chr> <chr>            <chr>     
#>  1 2047… ""          Supe… Евгения Шашенко… supe… jeniashasha/sup… 2020-08-1…
#>  2 2047… ""          Assi… Sahani Silva / … assi… sahanisilva1830… 2020-08-1…
#>  3 2047… "Singer.io… tap-… vividfront / me… tap-… vividfront/melt… 2020-08-1…
#>  4 2047… ""          firs… Evgeniy_shigart… firs… evgeniy.shigart… 2020-08-1…
#>  5 2047… "Semana fo… Ruby… Bruno Rodrigues… ruby… BrunoMerz/ruby-… 2020-08-1…
#>  6 2047… ""          Assi… Sahani Silva / … assi… sahanisilva1830… 2020-08-1…
#>  7 2047… "The GTK R… Remm… Scott Bradford … Remm… achmafooma/Remm… 2020-08-1…
#>  8 2047… "My projec… my_f… Dmitry Petelko … my_f… FMStudent/my_fi… 2020-08-1…
#>  9 2047… ""          ILP_… kiran kumar / I… ILP_… itzkirankumar/I… 2020-08-1…
#> 10 2047… ""          rest… dewi cahyanti /… rest… dewichynt15/res… 2020-08-1…
#> # … with 50 more rows, and 109 more variables: ssh_url_to_repo <chr>,
#> #   http_url_to_repo <chr>, web_url <chr>, forks_count <chr>, star_count <chr>,
#> #   last_activity_at <chr>, namespace.id <chr>, namespace.name <chr>,
#> #   namespace.path <chr>, namespace.kind <chr>, namespace.full_path <chr>,
#> #   namespace.avatar_url <chr>, namespace.web_url <chr>, `_links.self` <chr>,
#> #   `_links.issues` <chr>, `_links.merge_requests` <chr>,
#> #   `_links.repo_branches` <chr>, `_links.labels` <chr>, `_links.events` <chr>,
#> #   `_links.members` <chr>, packages_enabled <chr>, empty_repo <chr>,
#> #   archived <chr>, visibility <chr>, owner.id <chr>, owner.name <chr>,
…
