…
# connect as a fixed user to a GitLab instance for the session
set_gitlab_connection(
  gitlab_url = "https://gitlab.com",
  private_token = Sys.getenv("GITLAB_COM_TOKEN"))
```

-   Find the list of projects available to you
    -   Define a limit of pages of projects to search in with
        `max_page`, otherwise the entire GitLab.com will be downloaded
        here…

``` r
# a tibble is returned, as is always by {gitlabr} functions
gl_list_projects(max_page = 2) 
#> # A tibble: 40 x 125
#>    id     description  name   name_with_names… path  path_with_names… created_at
#>    <chr>  <chr>        <chr>  <chr>            <chr> <chr>            <chr>     
#>  1 27001… ""           ffmpe… Grumbulon / ffm… ffmp… grumbulon/ffmpe… 2021-05-2…
#>  2 27001… "A minimal … freed… Ryan Gonzalez /… free… refi64/freedesk… 2021-05-2…
#>  3 27001… "new-cpac 2… New C… anuntachai doun… new-… arwng/new-cpac-… 2021-05-2…
#>  4 27001… ""           cart-… playlister / ca… cart… playlister1/car… 2021-05-2…
#>  5 27001… ""           tinap… Максим Орлов / … tina… maaxorlov/tinap… 2021-05-2…
#>  6 27001… ""           track… playlister / tr… trac… playlister1/tra… 2021-05-2…
#>  7 27001… ""           andro… juliano osmir /… andr… julianoosmir/an… 2021-05-2…
#>  8 27001… ""           iti_c… Bri WS / iti_co… iti_… briws/iti_count… 2021-05-2…
#>  9 27001… ""           users… playlister / us… user… playlister1/use… 2021-05-2…
#> 10 27001… ""           test-… Ibrahim Hz / te… test… ibrahimhz/test-… 2021-05-2…
#> # … with 30 more rows, and 118 more variables: default_branch <chr>,
#> #   ssh_url_to_repo <chr>, http_url_to_repo <chr>, web_url <chr>,
#> #   forks_count <chr>, star_count <chr>, last_activity_at <chr>,
#> #   namespace.id <chr>, namespace.name <chr>, namespace.path <chr>,
#> #   namespace.kind <chr>, namespace.full_path <chr>,
#> #   namespace.avatar_url <chr>, namespace.web_url <chr>,
#> #   container_registry_image_prefix <chr>, _links.self <chr>,
#> #   _links.issues <chr>, _links.merge_requests <chr>,
#> #   _links.repo_branches <chr>, _links.labels <chr>, _links.events <chr>,
…
